../Core/Src/tim.c:33:6:MX_TIM1_Init	56	static
../Core/Src/tim.c:79:6:MX_TIM2_Init	48	static
../Core/Src/tim.c:123:6:MX_TIM3_Init	56	static
../Core/Src/tim.c:167:6:MX_TIM4_Init	56	static
../Core/Src/tim.c:211:6:HAL_TIM_Encoder_MspInit	64	static
../Core/Src/tim.c:289:6:HAL_TIM_PWM_MspInit	48	static
../Core/Src/tim.c:317:6:HAL_TIM_MspPostInit	40	static
../Core/Src/tim.c:345:6:HAL_TIM_Encoder_MspDeInit	16	static
../Core/Src/tim.c:404:6:HAL_TIM_PWM_MspDeInit	16	static
