../Core/Src/usart.c:36:6:MX_USART2_UART_Init	8	static
../Core/Src/usart.c:67:6:MX_USART3_UART_Init	8	static
../Core/Src/usart.c:98:6:MX_USART6_UART_Init	8	static
../Core/Src/usart.c:128:6:HAL_UART_MspInit	208	static
../Core/Src/usart.c:296:6:HAL_UART_MspDeInit	16	static
